Code/simulation/qsim/Code.msim.vcd
$comment
	File created using the following command:
		vcd file Code.msim.vcd -direction
$end
$date
	Thu May 21 13:20:41 2020
$end
$version
	ModelSim Version 10.5b
$end
$timescale
	1ps
$end

$scope module ALU_vlg_vec_tst $end
$var reg 1 ! clk $end
$var reg 2 " control [1:0] $end
$var reg 8 # in1 [7:0] $end
$var reg 8 $ in2 [7:0] $end
$var wire 1 % out [7] $end
$var wire 1 & out [6] $end
$var wire 1 ' out [5] $end
$var wire 1 ( out [4] $end
$var wire 1 ) out [3] $end
$var wire 1 * out [2] $end
$var wire 1 + out [1] $end
$var wire 1 , out [0] $end

$scope module i1 $end
$var wire 1 - gnd $end
$var wire 1 . vcc $end
$var wire 1 / unknown $end
$var tri1 1 0 devclrn $end
$var tri1 1 1 devpor $end
$var tri1 1 2 devoe $end
$var wire 1 3 clk~input_o $end
$var wire 1 4 control[0]~input_o $end
$var wire 1 5 control[1]~input_o $end
$var wire 1 6 ~QUARTUS_CREATED_GND~I_combout $end
$var wire 1 7 in1[0]~input_o $end
$var wire 1 8 in2[0]~input_o $end
$var wire 1 9 Add0~1_sumout $end
$var wire 1 : in1[1]~input_o $end
$var wire 1 ; in2[1]~input_o $end
$var wire 1 < Add0~2 $end
$var wire 1 = Add0~5_sumout $end
$var wire 1 > in2[2]~input_o $end
$var wire 1 ? in1[2]~input_o $end
$var wire 1 @ Add0~6 $end
$var wire 1 A Add0~9_sumout $end
$var wire 1 B in1[3]~input_o $end
$var wire 1 C in2[3]~input_o $end
$var wire 1 D Add0~10 $end
$var wire 1 E Add0~13_sumout $end
$var wire 1 F in1[4]~input_o $end
$var wire 1 G in2[4]~input_o $end
$var wire 1 H Add0~14 $end
$var wire 1 I Add0~17_sumout $end
$var wire 1 J in1[5]~input_o $end
$var wire 1 K in2[5]~input_o $end
$var wire 1 L Add0~18 $end
$var wire 1 M Add0~21_sumout $end
$var wire 1 N in2[6]~input_o $end
$var wire 1 O in1[6]~input_o $end
$var wire 1 P Add0~22 $end
$var wire 1 Q Add0~25_sumout $end
$var wire 1 R in1[7]~input_o $end
$var wire 1 S in2[7]~input_o $end
$var wire 1 T Add0~26 $end
$var wire 1 U Add0~29_sumout $end
$upscope $end
$upscope $end
$enddefinitions $end
#0
$dumpvars
0!
b0 "
b1010 #
b1011 $
1,
0+
1*
0)
1(
0'
0&
0%
0-
1.
x/
10
11
12
03
04
05
06
07
18
19
1:
1;
0<
0=
0>
0?
1@
1A
1B
1C
0D
0E
0F
0G
1H
1I
0J
0K
0L
0M
0N
0O
0P
0Q
0R
0S
0T
0U
$end
#5000
1!
13
#10000
0!
03
#15000
1!
13
#20000
0!
03
#25000
1!
13
#30000
0!
03
#35000
1!
13
#40000
0!
03
#45000
1!
13
#50000
0!
03
#55000
1!
13
#60000
0!
03
#65000
1!
13
#70000
b10 #
b0 #
b11 $
b1 $
b0 $
0!
08
0;
0C
0:
0B
03
0H
0@
09
0,
0I
0A
0*
0(
#75000
1!
13
#80000
0!
03
#85000
1!
13
#90000
0!
03
#95000
1!
13
#100000
0!
03
#105000
1!
13
#110000
0!
03
#115000
1!
13
#120000
0!
03
#125000
1!
13
#130000
0!
03
#135000
1!
13
#140000
0!
03
#145000
1!
13
#150000
0!
03
#155000
1!
13
#160000
b1000000 #
b1100000 #
b1100100 #
0!
1?
1J
1O
03
1Q
1M
1A
1*
1'
1&
#165000
1!
13
#170000
b100000 $
b110000 $
b110010 $
0!
1;
1G
1K
03
1P
0M
1I
1=
1+
1(
0'
1T
0Q
0&
1U
1%
#175000
1!
13
#180000
0!
03
#185000
1!
13
#190000
0!
03
#195000
1!
13
#200000
0!
03
#205000
1!
13
#210000
0!
03
#215000
1!
13
#220000
0!
03
#225000
1!
13
#230000
b100100 #
b100 #
b0 #
b10010 $
b10 $
b0 $
0!
0;
0G
0K
0?
0J
0O
03
0T
0P
1Q
0A
0I
0=
0+
0(
0*
1&
0U
0Q
0&
0%
#235000
1!
13
#240000
0!
03
#245000
1!
13
#250000
0!
03
#255000
1!
13
#260000
0!
03
#265000
1!
13
#270000
0!
03
#275000
1!
13
#280000
0!
03
#285000
1!
13
#290000
0!
03
#295000
1!
13
#300000
0!
03
#305000
1!
13
#310000
0!
03
#315000
1!
13
#320000
0!
03
#325000
1!
13
#330000
0!
03
#335000
1!
13
#340000
0!
03
#345000
1!
13
#350000
0!
03
#355000
1!
13
#360000
0!
03
#365000
1!
13
#370000
0!
03
#375000
1!
13
#380000
0!
03
#385000
1!
13
#390000
0!
03
#395000
1!
13
#400000
0!
03
#405000
1!
13
#410000
0!
03
#415000
1!
13
#420000
0!
03
#425000
1!
13
#430000
0!
03
#435000
1!
13
#440000
0!
03
#445000
1!
13
#450000
0!
03
#455000
1!
13
#460000
0!
03
#465000
1!
13
#470000
0!
03
#475000
1!
13
#480000
0!
03
#485000
1!
13
#490000
0!
03
#495000
1!
13
#500000
0!
03
#505000
1!
13
#510000
0!
03
#515000
1!
13
#520000
0!
03
#525000
1!
13
#530000
0!
03
#535000
1!
13
#540000
0!
03
#545000
1!
13
#550000
0!
03
#555000
1!
13
#560000
0!
03
#565000
1!
13
#570000
0!
03
#575000
1!
13
#580000
0!
03
#585000
1!
13
#590000
0!
03
#595000
1!
13
#600000
0!
03
#605000
1!
13
#610000
0!
03
#615000
1!
13
#620000
0!
03
#625000
1!
13
#630000
0!
03
#635000
1!
13
#640000
0!
03
#645000
1!
13
#650000
0!
03
#655000
1!
13
#660000
0!
03
#665000
1!
13
#670000
0!
03
#675000
1!
13
#680000
0!
03
#685000
1!
13
#690000
0!
03
#695000
1!
13
#700000
0!
03
#705000
1!
13
#710000
0!
03
#715000
1!
13
#720000
0!
03
#725000
1!
13
#730000
0!
03
#735000
1!
13
#740000
0!
03
#745000
1!
13
#750000
0!
03
#755000
1!
13
#760000
0!
03
#765000
1!
13
#770000
0!
03
#775000
1!
13
#780000
0!
03
#785000
1!
13
#790000
0!
03
#795000
1!
13
#800000
0!
03
#805000
1!
13
#810000
0!
03
#815000
1!
13
#820000
0!
03
#825000
1!
13
#830000
0!
03
#835000
1!
13
#840000
0!
03
#845000
1!
13
#850000
0!
03
#855000
1!
13
#860000
0!
03
#865000
1!
13
#870000
0!
03
#875000
1!
13
#880000
0!
03
#885000
1!
13
#890000
0!
03
#895000
1!
13
#900000
0!
03
#905000
1!
13
#910000
0!
03
#915000
1!
13
#920000
0!
03
#925000
1!
13
#930000
0!
03
#935000
1!
13
#940000
0!
03
#945000
1!
13
#950000
0!
03
#955000
1!
13
#960000
0!
03
#965000
1!
13
#970000
0!
03
#975000
1!
13
#980000
0!
03
#985000
1!
13
#990000
0!
03
#995000
1!
13
